%YAML 1.1
%TAG !u! tag:unity3d.com,2011:
--- !u!21 &2100000
Material:
  serializedVersion: 6
  m_ObjectHideFlags: 0
  m_PrefabParentObject: {fileID: 0}
  m_PrefabInternal: {fileID: 0}
  m_Name: ColorBonus 1
  m_Shader: {fileID: 4800000, guid: 03a670b5a8424044b8d83bbb221e7538, type: 3}
  m_ShaderKeywords: 
  m_LightmapFlags: 4
  m_EnableInstancingVariants: 0
  m_DoubleSidedGI: 0
  m_CustomRenderQueue: -1
  stringTagMap: {}
  disabledShaderPasses: []
  m_SavedProperties:
    serializedVersion: 3
    m_TexEnvs:
    - _MainTex:
        m_Texture: {fileID: 0}
        m_Scale: {x: 1, y: 1}
        m_Offset: {x: 0, y: 0}
    m_Floats:
    - _CutoutThresh: 0.014
    - _Glow: 1.56
    - _Transparency: 0.5
    m_Colors:
    - _Color: {r: 1, g: 1, b: 0, a: 1}
    - _TintColor: {r: 0, g: 0.5034485, b: 1, a: 1}
