%YAML 1.1
%TAG !u! tag:unity3d.com,2011:
--- !u!21 &2100000
Material:
  serializedVersion: 6
  m_ObjectHideFlags: 0
  m_PrefabParentObject: {fileID: 0}
  m_PrefabInternal: {fileID: 0}
  m_Name: ParticleSpark
  m_Shader: {fileID: 200, guid: 0000000000000000f000000000000000, type: 0}
  m_ShaderKeywords: 
  m_LightmapFlags: 5
  m_EnableInstancingVariants: 0
  m_DoubleSidedGI: 0
  m_CustomRenderQueue: -1
  stringTagMap: {}
  disabledShaderPasses: []
  m_SavedProperties:
    serializedVersion: 3
    m_TexEnvs:
    - _BumpMap:
        m_Texture: {fileID: 0}
        m_Scale: {x: 1, y: 1}
        m_Offset: {x: 0, y: 0}
    - _MKGlowTex:
        m_Texture: {fileID: 0}
        m_Scale: {x: 1, y: 1}
        m_Offset: {x: 0, y: 0}
    - _MainTex:
        m_Texture: {fileID: 2800000, guid: 269490de66e33a34dad45a50e3d4c168, type: 3}
        m_Scale: {x: 1, y: 1}
        m_Offset: {x: 0, y: 0}
    m_Floats:
    - _InvFade: 0.94716424
    - _MKGlowPower: 2.5
    - _MKGlowTexStrength: 1
    m_Colors:
    - _Color: {r: 1, g: 1, b: 1, a: 1}
    - _MKGlowColor: {r: 1, g: 1, b: 1, a: 1}
    - _MKGlowTexColor: {r: 1, g: 1, b: 1, a: 1}
    - _TintColor: {r: 0.5, g: 0.5, b: 0.5, a: 0.5}
