{
  "project_info": {
    "project_number": "847839812292",
    "firebase_url": "https://glow-box-d8b01.firebaseio.com",
    "project_id": "glow-box-d8b01",
    "storage_bucket": "glow-box-d8b01.appspot.com"
  },
  "client": [
    {
      "client_info": {
        "mobilesdk_app_id": "1:847839812292:android:f62f4301273a9d68f04791",
        "android_client_info": {
          "package_name": "pl.apg.glowbox"
        }
      },
      "oauth_client": [
        {
          "client_id": "847839812292-b1h3edniul6bvpp8539t4qrutpd54sco.apps.googleusercontent.com",
          "client_type": 3
        }
      ],
      "api_key": [
        {
          "current_key": "AIzaSyA89oekxca5Y50Dp0x1ZB1tqIDlBmZPsKA"
        }
      ],
      "services": {
        "appinvite_service": {
          "other_platform_oauth_client": [
            {
              "client_id": "847839812292-b1h3edniul6bvpp8539t4qrutpd54sco.apps.googleusercontent.com",
              "client_type": 3
            },
            {
              "client_id": "847839812292-r8q419hls9ckhhafsmh2cui69j9g5c7h.apps.googleusercontent.com",
              "client_type": 2,
              "ios_info": {
                "bundle_id": "pl.apg.glowbox"
              }
            }
          ]
        }
      }
    }
  ],
  "configuration_version": "1"
}